hardware/buffer_wave.vcd
$date
  Tue Dec  9 14:14:34 2025
$end
$version
  GHDL v0
$end
$timescale
  1 fs
$end
$scope module standard $end
$upscope $end
$scope module textio $end
$upscope $end
$scope module std_logic_1164 $end
$upscope $end
$scope module numeric_std $end
$upscope $end
$scope module tb_buffer_wave $end
$var reg 1 ! clk $end
$var reg 1 " rst $end
$var reg 64 # z_bit_len[63:0] $end
$var reg 32 $ out_len_bits[31:0] $end
$var reg 1 % start_z $end
$var reg 1 & start_m $end
$var reg 64 ' data_in[63:0] $end
$var reg 3 ( valid_bytes[2:0] $end
$var reg 1 ) last_word $end
$var reg 1 * data_valid $end
$var reg 1 + buffer_ready $end
$var reg 64 , block_out[63:0] $end
$var reg 1 - block_valid $end
$var reg 1 . cmd_perm $end
$var reg 1 / cmd_squeeze $end
$var reg 1 0 domain_sep $end
$var reg 1 1 core_busy $end
$var integer 32 2 busy_counter $end
$var reg 1 3 perm_requested $end
$var integer 32 4 debug_state $end
$scope module dut $end
$var reg 1 5 clk $end
$var reg 1 6 rst $end
$var reg 64 7 z_bit_len[63:0] $end
$var reg 32 8 out_len_bits[31:0] $end
$var reg 1 9 start_z $end
$var reg 1 : start_m $end
$var reg 64 ; data_in[63:0] $end
$var reg 3 < valid_bytes[2:0] $end
$var reg 1 = last_word $end
$var reg 1 > data_valid $end
$var reg 1 ? buffer_ready $end
$var reg 64 @ block_out[63:0] $end
$var reg 1 A block_valid $end
$var reg 1 B cmd_perm $end
$var reg 1 C cmd_squeeze $end
$var reg 1 D domain_sep $end
$var reg 1 E core_busy $end
$comment current_state is not handled $end
$var reg 32 F squeeze_count[31:0] $end
$var reg 64 G pad_buffer[63:0] $end
$upscope $end
$upscope $end
$enddefinitions $end
#0
0!
1"
b0000000000000000000000000000000000000000000000000000000000001000 #
b00000000000000000000001000000000 $
0%
0&
b0000000000000000000000000000000000000000000000000000000000000000 '
b000 (
0)
0*
U+
bUUUUUUUUUUUUUUUUUUUUUUUUUUUUUUUUUUUUUUUUUUUUUUUUUUUUUUUUUUUUUUUU ,
U-
U.
U/
U0
01
b0 2
03
b0 4
05
16
b0000000000000000000000000000000000000000000000000000000000001000 7
b00000000000000000000001000000000 8
09
0:
b0000000000000000000000000000000000000000000000000000000000000000 ;
b000 <
0=
0>
U?
bUUUUUUUUUUUUUUUUUUUUUUUUUUUUUUUUUUUUUUUUUUUUUUUUUUUUUUUUUUUUUUUU @
UA
UB
UC
UD
0E
bUUUUUUUUUUUUUUUUUUUUUUUUUUUUUUUU F
bUUUUUUUUUUUUUUUUUUUUUUUUUUUUUUUUUUUUUUUUUUUUUUUUUUUUUUUUUUUUUUUU G
#5000000
1!
0+
b0000000000000000000000000000000000000000000000000000000000000000 ,
0-
0.
0/
00
15
0?
b0000000000000000000000000000000000000000000000000000000000000000 @
0A
0B
0C
0D
#10000000
0!
05
#15000000
1!
15
#20000000
0!
05
#25000000
1!
15
#30000000
0!
0"
05
06
#35000000
1!
15
#40000000
0!
05
#45000000
1!
15
#50000000
0!
05
#55000000
1!
1%
15
19
#60000000
0!
05
#65000000
1!
0%
15
09
#70000000
0!
05
#75000000
1!
b0000000000000000000000000000000000000000000000000000000000001000 ,
1-
1.
15
b0000000000000000000000000000000000000000000000000000000000001000 @
1A
1B
#80000000
0!
05
#85000000
1!
0-
0.
11
b1100 2
13
15
0A
0B
1E
#90000000
0!
05
#95000000
1!
1+
b1011 2
03
15
1?
#100000000
0!
05
#105000000
1!
b1010 2
15
1?
#110000000
0!
05
#115000000
1!
b1001 2
15
1?
#120000000
0!
05
#125000000
1!
b1000 2
15
1?
#130000000
0!
05
#135000000
1!
b111 2
15
1?
#140000000
0!
05
#145000000
1!
b110 2
15
1?
#150000000
0!
05
#155000000
1!
b101 2
15
1?
#160000000
0!
05
#165000000
1!
b100 2
15
1?
#170000000
0!
05
#175000000
1!
b11 2
15
1?
#180000000
0!
05
#185000000
1!
b10 2
15
1?
#190000000
0!
05
#195000000
1!
b1 2
15
1?
#200000000
0!
05
#205000000
1!
01
b0 2
15
1?
0E
#210000000
0!
05
#215000000
1!
15
1?
#220000000
0!
05
#225000000
1!
15
1?
#230000000
0!
05
#235000000
1!
15
1?
#240000000
0!
05
#245000000
1!
15
1?
#250000000
0!
05
#255000000
1!
15
1?
#260000000
0!
05
#265000000
1!
b0001000000000000000000000000000000000000000000000000000000000000 '
b001 (
1)
1*
15
b0001000000000000000000000000000000000000000000000000000000000000 ;
b001 <
1=
1>
1?
#270000000
0!
05
#275000000
1!
b0001000000000000000000000000000000000000000000000000000100000000 ,
1-
1.
15
1?
b0001000000000000000000000000000000000000000000000000000100000000 @
1A
1B
#280000000
0!
05
#285000000
1!
0)
0*
0+
0-
0.
11
b1100 2
13
15
0=
0>
0?
0A
0B
1E
#290000000
0!
05
#295000000
1!
b1011 2
03
15
#300000000
0!
05
#305000000
1!
b1010 2
15
#310000000
0!
05
#315000000
1!
b1001 2
15
#320000000
0!
05
#325000000
1!
b1000 2
15
#330000000
0!
05
#335000000
1!
b111 2
15
#340000000
0!
05
#345000000
1!
b110 2
15
#350000000
0!
05
#355000000
1!
b101 2
15
#360000000
0!
05
#365000000
1!
b100 2
15
#370000000
0!
05
#375000000
1!
b11 2
15
#380000000
0!
05
#385000000
1!
b10 2
15
#390000000
0!
05
#395000000
1!
b1 2
15
#400000000
0!
05
#405000000
1!
01
b0 2
15
0E
#410000000
0!
05
#415000000
1!
15
#420000000
0!
05
#425000000
1!
15
#430000000
0!
05
#435000000
1!
15
#440000000
0!
05
#445000000
1!
15
#450000000
0!
05
#455000000
1!
15
#460000000
0!
05
#465000000
1!
15
#470000000
0!
05
#475000000
1!
15
#480000000
0!
05
#485000000
1!
15
#490000000
0!
05
#495000000
1!
1&
15
1:
#500000000
0!
05
#505000000
1!
0&
15
0:
#510000000
0!
05
#515000000
1!
1+
15
1?
#520000000
0!
05
#525000000
1!
b0000000000000000000000000000000000000000000000000000000000000000 '
b000 (
1)
1*
15
b0000000000000000000000000000000000000000000000000000000000000000 ;
b000 <
1=
1>
1?
#530000000
0!
05
#535000000
1!
b0000000000000000000000000000000000000000000000000000000000000000 ,
1-
15
1?
b0000000000000000000000000000000000000000000000000000000000000000 @
1A
b0000000000000000000000000000000000000000000000000000000000000001 G
#540000000
0!
05
#545000000
1!
0)
0*
0+
b0000000000000000000000000000000000000000000000000000000000000001 ,
1.
15
0=
0>
0?
b0000000000000000000000000000000000000000000000000000000000000001 @
1A
1B
#550000000
0!
05
#555000000
1!
0-
0.
11
b1100 2
13
15
0A
0B
1E
b00000000000000000000001000000000 F
#560000000
0!
05
#565000000
1!
1/
b1011 2
03
15
1C
#570000000
0!
05
#575000000
1!
0/
b1010 2
13
15
0C
#580000000
0!
05
#585000000
1!
b1001 2
03
15
#590000000
0!
05
#595000000
1!
b1000 2
15
#600000000
0!
05
#605000000
1!
b111 2
15
#610000000
0!
05
#615000000
1!
b110 2
15
#620000000
0!
05
#625000000
1!
b101 2
15
#630000000
0!
05
#635000000
1!
b100 2
15
#640000000
0!
05
#645000000
1!
b11 2
15
#650000000
0!
05
#655000000
1!
b10 2
15
#660000000
0!
05
#665000000
1!
b1 2
15
#670000000
0!
05
#675000000
1!
01
b0 2
15
0E
#680000000
0!
05
#685000000
1!
1.
15
1B
b00000000000000000000000111000000 F
#690000000
0!
05
#695000000
1!
0.
1/
11
b1100 2
13
15
0B
1C
1E
#700000000
0!
05
#705000000
1!
0/
b1011 2
15
0C
#710000000
0!
05
#715000000
1!
b1010 2
03
15
#720000000
0!
05
#725000000
1!
b1001 2
15
#730000000
0!
05
#735000000
1!
b1000 2
15
#740000000
0!
05
#745000000
1!
b111 2
15
#750000000
0!
05
#755000000
1!
b110 2
15
#760000000
0!
05
#765000000
1!
b101 2
15
#770000000
0!
05
#775000000
1!
b100 2
15
#780000000
0!
05
#785000000
1!
b11 2
15
#790000000
0!
05
#795000000
1!
b10 2
15
#800000000
0!
05
#805000000
1!
b1 2
15
#810000000
0!
05
#815000000
1!
01
b0 2
15
0E
#820000000
0!
05
#825000000
1!
1.
15
1B
b00000000000000000000000110000000 F
#830000000
0!
05
#835000000
1!
0.
1/
11
b1100 2
13
15
0B
1C
1E
#840000000
0!
05
#845000000
1!
0/
b1011 2
15
0C
#850000000
0!
05
#855000000
1!
b1010 2
03
15
#860000000
0!
05
#865000000
1!
b1001 2
15
#870000000
0!
05
#875000000
1!
b1000 2
15
#880000000
0!
05
#885000000
1!
b111 2
15
#890000000
0!
05
#895000000
1!
b110 2
15
#900000000
0!
05
#905000000
1!
b101 2
15
#910000000
0!
05
#915000000
1!
b100 2
15
#920000000
0!
05
#925000000
1!
b11 2
15
#930000000
0!
05
#935000000
1!
b10 2
15
#940000000
0!
05
#945000000
1!
b1 2
15
#950000000
0!
05
#955000000
1!
01
b0 2
15
0E
#960000000
0!
05
#965000000
1!
1.
15
1B
b00000000000000000000000101000000 F
#970000000
0!
05
#975000000
1!
0.
1/
11
b1100 2
13
15
0B
1C
1E
#980000000
0!
05
#985000000
1!
0/
b1011 2
15
0C
#990000000
0!
05
#995000000
1!
b1010 2
03
15
#1000000000
0!
05
#1005000000
1!
b1001 2
15
#1010000000
0!
05
#1015000000
1!
b1000 2
15
#1020000000
0!
05
#1025000000
1!
b111 2
15
#1030000000
0!
05
#1035000000
1!
b110 2
15
#1040000000
0!
05
#1045000000
1!
b101 2
15
#1050000000
0!
05
#1055000000
1!
b100 2
15
#1060000000
0!
05
#1065000000
1!
b11 2
15
#1070000000
0!
05
#1075000000
1!
b10 2
15
#1080000000
0!
05
#1085000000
1!
b1 2
15
#1090000000
0!
05
#1095000000
1!
01
b0 2
15
0E
#1100000000
0!
05
#1105000000
1!
1.
15
1B
b00000000000000000000000100000000 F
#1110000000
0!
05
#1115000000
1!
0.
1/
11
b1100 2
13
15
0B
1C
1E
#1120000000
0!
05
#1125000000
1!
0/
b1011 2
15
0C
#1130000000
0!
05
#1135000000
1!
b1010 2
03
15
#1140000000
0!
05
#1145000000
1!
b1001 2
15
#1150000000
0!
05
#1155000000
1!
b1000 2
15
#1160000000
0!
05
#1165000000
1!
b111 2
15
#1170000000
0!
05
#1175000000
1!
b110 2
15
#1180000000
0!
05
#1185000000
1!
b101 2
15
#1190000000
0!
05
#1195000000
1!
b100 2
15
#1200000000
0!
05
#1205000000
1!
b11 2
15
#1210000000
0!
05
#1215000000
1!
b10 2
15
#1220000000
0!
05
#1225000000
1!
b1 2
15
#1230000000
0!
05
#1235000000
1!
01
b0 2
15
0E
#1240000000
0!
05
#1245000000
1!
1.
15
1B
b00000000000000000000000011000000 F
#1250000000
0!
05
#1255000000
1!
0.
1/
11
b1100 2
13
15
0B
1C
1E
#1260000000
0!
05
#1265000000
1!
0/
b1011 2
15
0C
#1270000000
0!
05
#1275000000
1!
b1010 2
03
15
#1280000000
0!
05
#1285000000
1!
b1001 2
15
#1290000000
0!
05
#1295000000
1!
b1000 2
15
#1300000000
0!
05
#1305000000
1!
b111 2
15
#1310000000
0!
05
#1315000000
1!
b110 2
15
#1320000000
0!
05
#1325000000
1!
b101 2
15
#1330000000
0!
05
#1335000000
1!
b100 2
15
#1340000000
0!
05
#1345000000
1!
b11 2
15
#1350000000
0!
05
#1355000000
1!
b10 2
15
#1360000000
0!
05
#1365000000
1!
b1 2
15
#1370000000
0!
05
#1375000000
1!
01
b0 2
15
0E
#1380000000
0!
05
#1385000000
1!
1.
15
1B
b00000000000000000000000010000000 F
#1390000000
0!
05
#1395000000
1!
0.
1/
11
b1100 2
13
15
0B
1C
1E
#1400000000
0!
05
#1405000000
1!
0/
b1011 2
15
0C
#1410000000
0!
05
#1415000000
1!
b1010 2
03
15
#1420000000
0!
05
#1425000000
1!
b1001 2
15
#1430000000
0!
05
#1435000000
1!
b1000 2
15
#1440000000
0!
05
#1445000000
1!
b111 2
15
#1450000000
0!
05
#1455000000
1!
b110 2
15
#1460000000
0!
05
#1465000000
1!
b101 2
15
#1470000000
0!
05
#1475000000
1!
b100 2
15
#1480000000
0!
05
#1485000000
1!
b11 2
15
#1490000000
0!
05
#1495000000
1!
b10 2
15
#1500000000
0!
05
#1505000000
1!
b1 2
15
#1510000000
0!
05
#1515000000
1!
01
b0 2
15
0E
#1520000000
0!
05
#1525000000
1!
1.
15
1B
b00000000000000000000000001000000 F
#1530000000
0!
05
#1535000000
1!
0.
1/
11
b1100 2
13
15
0B
1C
1E
#1540000000
0!
05
#1545000000
1!
0/
b1011 2
15
0C
#1550000000
0!
05
#1555000000
1!
b1010 2
03
15
#1560000000
0!
05
#1565000000
1!
b1001 2
15
#1570000000
0!
05
#1575000000
1!
b1000 2
15
#1580000000
0!
05
#1585000000
1!
b111 2
15
#1590000000
0!
05
#1595000000
1!
b110 2
15
#1600000000
0!
05
#1605000000
1!
b101 2
15
#1610000000
0!
05
#1615000000
1!
b100 2
15
#1620000000
0!
05
#1625000000
1!
b11 2
15
#1630000000
0!
05
#1635000000
1!
b10 2
15
#1640000000
0!
05
#1645000000
1!
b1 2
15
#1650000000
0!
05
#1655000000
1!
01
b0 2
15
0E
