hardware/top_wave.vcd
$date
  Thu Dec 11 00:23:24 2025
$end
$version
  GHDL v0
$end
$timescale
  1 fs
$end
$scope module standard $end
$upscope $end
$scope module textio $end
$upscope $end
$scope module std_logic_1164 $end
$upscope $end
$scope module numeric_std $end
$upscope $end
$scope module tb_top_wave $end
$var reg 1 ! clk $end
$var reg 1 " rst $end
$var reg 1 # start_z $end
$var reg 1 $ start_m $end
$var reg 64 % z_bit_len[63:0] $end
$var reg 32 & out_len_bits[31:0] $end
$var reg 64 ' data_in[63:0] $end
$var reg 3 ( valid_bytes[2:0] $end
$var reg 1 ) last_word $end
$var reg 1 * data_valid $end
$var reg 1 + buffer_ready $end
$var reg 64 , hash_out[63:0] $end
$var reg 1 - hash_valid $end
$var integer 32 . test_case $end
$scope module dut $end
$var reg 1 / clk $end
$var reg 1 0 rst $end
$var reg 64 1 z_bit_len[63:0] $end
$var reg 32 2 out_len_bits[31:0] $end
$var reg 1 3 start_z $end
$var reg 1 4 start_m $end
$var reg 64 5 data_in[63:0] $end
$var reg 3 6 valid_bytes[2:0] $end
$var reg 1 7 last_word $end
$var reg 1 8 data_valid $end
$var reg 1 9 buffer_ready $end
$var reg 64 : hash_out[63:0] $end
$var reg 1 ; hash_valid $end
$comment main_state is not handled $end
$var reg 64 < w_block_data[63:0] $end
$var reg 64 = w_core_out[63:0] $end
$var reg 1 > w_block_valid $end
$var reg 1 ? w_core_busy $end
$var reg 1 @ w_perm_done $end
$var reg 1 A ctrl_init_state $end
$var reg 1 B buf_ready_raw $end
$var reg 1 C w_cmd_squeeze $end
$var reg 1 D w_cmd_perm $end
$var reg 1 E iv_start_perm $end
$var reg 1 F transaction_init_done $end
$var reg 1 G buf_start_z $end
$var reg 1 H internal_reset_pulse $end
$var reg 1 I combined_rst $end
$scope module u_buffer $end
$var reg 1 J clk $end
$var reg 1 K rst $end
$var reg 64 L z_bit_len[63:0] $end
$var reg 32 M out_len_bits[31:0] $end
$var reg 1 N start_z $end
$var reg 1 O start_m $end
$var reg 64 P data_in[63:0] $end
$var reg 3 Q valid_bytes[2:0] $end
$var reg 1 R last_word $end
$var reg 1 S data_valid $end
$var reg 1 T buffer_ready $end
$var reg 64 U block_out[63:0] $end
$var reg 1 V block_valid $end
$var reg 1 W cmd_perm $end
$var reg 1 X cmd_squeeze $end
$var reg 1 Y domain_sep $end
$var reg 1 Z core_busy $end
$comment current_state is not handled $end
$var reg 32 [ squeeze_count[31:0] $end
$var reg 64 \ pad_buffer[63:0] $end
$upscope $end
$scope module u_core $end
$var reg 1 ] clk $end
$var reg 1 ^ rst $end
$var reg 1 _ start_perm $end
$var reg 1 ` absorb_en $end
$var reg 1 a init_state $end
$var reg 64 b block_in[63:0] $end
$var reg 64 c block_out[63:0] $end
$var reg 1 d core_busy $end
$var reg 1 e perm_done $end
$comment s is not handled $end
$comment s_next is not handled $end
$var integer 32 f round_ctr $end
$var reg 1 g round_active $end
$upscope $end
$upscope $end
$upscope $end
$enddefinitions $end
#0
0!
1"
0#
0$
b0000000000000000000000000000000000000000000000000000000000000000 %
b00000000000000000000000100000000 &
b0000000000000000000000000000000000000000000000000000000000000000 '
b000 (
0)
0*
0+
bUUUUUUUUUUUUUUUUUUUUUUUUUUUUUUUUUUUUUUUUUUUUUUUUUUUUUUUUUUUUUUUU ,
0-
b0 .
0/
10
b0000000000000000000000000000000000000000000000000000000000000000 1
b00000000000000000000000100000000 2
03
04
b0000000000000000000000000000000000000000000000000000000000000000 5
b000 6
07
08
09
bUUUUUUUUUUUUUUUUUUUUUUUUUUUUUUUUUUUUUUUUUUUUUUUUUUUUUUUUUUUUUUUU :
0;
bUUUUUUUUUUUUUUUUUUUUUUUUUUUUUUUUUUUUUUUUUUUUUUUUUUUUUUUUUUUUUUUU <
bUUUUUUUUUUUUUUUUUUUUUUUUUUUUUUUUUUUUUUUUUUUUUUUUUUUUUUUUUUUUUUUU =
U>
U?
U@
UA
UB
UC
UD
0E
0F
0G
0H
1I
0J
1K
b0000000000000000000000000000000000000000000000000000000000000000 L
b00000000000000000000000100000000 M
0N
0O
b0000000000000000000000000000000000000000000000000000000000000000 P
b000 Q
0R
0S
UT
bUUUUUUUUUUUUUUUUUUUUUUUUUUUUUUUUUUUUUUUUUUUUUUUUUUUUUUUUUUUUUUUU U
UV
UW
UX
UY
UZ
bUUUUUUUUUUUUUUUUUUUUUUUUUUUUUUUU [
bUUUUUUUUUUUUUUUUUUUUUUUUUUUUUUUUUUUUUUUUUUUUUUUUUUUUUUUUUUUUUUUU \
0]
1^
U_
U`
Ua
bUUUUUUUUUUUUUUUUUUUUUUUUUUUUUUUUUUUUUUUUUUUUUUUUUUUUUUUUUUUUUUUU b
bUUUUUUUUUUUUUUUUUUUUUUUUUUUUUUUUUUUUUUUUUUUUUUUUUUUUUUUUUUUUUUUU c
Ud
Ue
b0 f
0g
#5000000
1!
b0000010000000000110011000000000000000000000010000000000000000000 ,
1/
b0000010000000000110011000000000000000000000010000000000000000000 :
b0000000000000000000000000000000000000000000000000000000000000000 <
b0000000000000000000010000000000000000000110011000000000000000100 =
0>
0?
0@
0A
0B
0C
0D
1J
0T
b0000000000000000000000000000000000000000000000000000000000000000 U
0V
0W
0X
0Y
0Z
1]
0_
0`
0a
b0000000000000000000000000000000000000000000000000000000000000000 b
b0000000000000000000010000000000000000000110011000000000000000100 c
0d
0e
#10000000
0!
0/
0J
0]
#15000000
1!
1/
1J
1]
#20000000
0!
0/
0J
0]
#25000000
1!
1/
1J
1]
#30000000
0!
0/
0J
0]
#35000000
1!
1/
1J
1]
#40000000
0!
0/
0J
0]
#45000000
1!
1/
1J
1]
#50000000
0!
0/
0J
0]
#55000000
1!
1/
1J
1]
#60000000
0!
0/
0J
0]
#65000000
1!
1/
1J
1]
#70000000
0!
0/
0J
0]
#75000000
1!
1/
1J
1]
#80000000
0!
0/
0J
0]
#85000000
1!
1/
1J
1]
#90000000
0!
0/
0J
0]
#95000000
1!
1/
1J
1]
#100000000
0!
0"
0/
00
0I
0J
0K
0]
0^
#105000000
1!
1/
1A
1J
1]
1a
#110000000
0!
0/
0J
0]
#115000000
1!
1/
1?
0A
1E
1J
1Z
1]
1_
0a
1d
#120000000
0!
0/
0J
0]
#125000000
1!
1/
0E
1J
1]
0_
1g
#130000000
0!
0/
0J
0]
#135000000
1!
b1110110110000000110011000000000101000000100001111101111010001100 ,
1/
b1110110110000000110011000000000101000000100001111101111010001100 :
b1000110011011110100001110100000000000001110011001000000011101101 =
1J
1]
b1000110011011110100001110100000000000001110011001000000011101101 c
b1 f
#140000000
0!
0/
0J
0]
#145000000
1!
b0111111111111000110110110110000110011110111011111111001001000000 ,
1/
b0111111111111000110110110110000110011110111011111111001001000000 :
b0100000011110010111011111001111001100001110110111111100001111111 =
1J
1]
b0100000011110010111011111001111001100001110110111111100001111111 c
b10 f
#150000000
0!
0/
0J
0]
#155000000
1!
b0000000110100110110000101010101100011010100011011101010101011011 ,
1/
b0000000110100110110000101010101100011010100011011101010101011011 :
b0101101111010101100011010001101010101011110000101010011000000001 =
1J
1]
b0101101111010101100011010001101010101011110000101010011000000001 c
b11 f
#160000000
0!
0/
0J
0]
#165000000
1!
b1110010010001001011011111011110011010111011000011100011101110111 ,
1/
b1110010010001001011011111011110011010111011000011100011101110111 :
b0111011111000111011000011101011110111100011011111000100111100100 =
1J
1]
b0111011111000111011000011101011110111100011011111000100111100100 c
b100 f
#170000000
0!
0/
0J
0]
#175000000
1!
b1010110100101011101010110001000010111110001011010111000011001101 ,
1/
b1010110100101011101010110001000010111110001011010111000011001101 :
b1100110101110000001011011011111000010000101010110010101110101101 =
1J
1]
b1100110101110000001011011011111000010000101010110010101110101101 c
b101 f
#180000000
0!
0/
0J
0]
#185000000
1!
b0111011110110010110000110111110010011010110110111100110010100101 ,
1/
b0111011110110010110000110111110010011010110110111100110010100101 :
b1010010111001100110110111001101001111100110000111011001001110111 =
1J
1]
b1010010111001100110110111001101001111100110000111011001001110111 c
b110 f
#190000000
0!
0/
0J
0]
#195000000
1!
b1000111111000001000010001110010010011011111111001001011000001000 ,
1/
b1000111111000001000010001110010010011011111111001001011000001000 :
b0000100010010110111111001001101111100100000010001100000110001111 =
1J
1]
b0000100010010110111111001001101111100100000010001100000110001111 c
b111 f
#200000000
0!
0/
0J
0]
#205000000
1!
b1001001000000010001100100110101000100100000010001001101100110000 ,
1/
b1001001000000010001100100110101000100100000010001001101100110000 :
b0011000010011011000010000010010001101010001100100000001010010010 =
1J
1]
b0011000010011011000010000010010001101010001100100000001010010010 c
b1000 f
#210000000
0!
0/
0J
0]
#215000000
1!
b0100000100001100001110100000000011101011111111111000011001101001 ,
1/
b0100000100001100001110100000000011101011111111111000011001101001 :
b0110100110000110111111111110101100000000001110100000110001000001 =
1J
1]
b0110100110000110111111111110101100000000001110100000110001000001 c
b1001 f
#220000000
0!
0/
0J
0]
#225000000
1!
b0001101011011100011010101110111000011000100000111110100111011011 ,
1/
b0001101011011100011010101110111000011000100000111110100111011011 :
b1101101111101001100000110001100011101110011010101101110000011010 =
1J
1]
b1101101111101001100000110001100011101110011010101101110000011010 c
b1010 f
#230000000
0!
0/
0J
0]
#235000000
1!
b0111011010110111001101010101100000100101010001101010100011001000 ,
1/
b0111011010110111001101010101100000100101010001101010100011001000 :
b1100100010101000010001100010010101011000001101011011011101110110 =
1J
1]
b1100100010101000010001100010010101011000001101011011011101110110 c
b1011 f
#240000000
0!
0/
0J
0]
#245000000
1!
b0000001111011110111010001010000011000010001001110101010101100111 ,
1/
b0000001111011110111010001010000011000010001001110101010101100111 :
b0110011101010101001001111100001010100000111010001101111000000011 =
0?
1@
1J
0Z
1]
b0110011101010101001001111100001010100000111010001101111000000011 c
0d
1e
b0 f
0g
#250000000
0!
0/
0J
0]
#255000000
1!
1-
1/
1;
0@
1J
1]
0e
#260000000
0!
0/
0J
0]
#265000000
1!
1/
1J
1]
#270000000
0!
0/
0J
0]
#275000000
1!
1/
1J
1]
#280000000
0!
0/
0J
0]
#285000000
1!
1/
1J
1]
#290000000
0!
0/
0J
0]
#295000000
1!
1/
1J
1]
#300000000
0!
b1 .
0/
0J
0]
#305000000
1!
1#
1/
13
1J
1]
#310000000
0!
0/
0J
0]
#315000000
1!
0-
1/
0;
1F
1H
1I
1J
1K
1]
#320000000
0!
0/
0J
0]
#325000000
1!
1/
1A
0H
0I
1J
0K
1]
1a
#330000000
0!
0/
0J
0]
#335000000
1!
b0000010000000000110011000000000000000000000010000000000000000000 ,
1/
b0000010000000000110011000000000000000000000010000000000000000000 :
b0000000000000000000010000000000000000000110011000000000000000100 =
1?
0A
1E
1J
1Z
1]
1_
0a
b0000000000000000000010000000000000000000110011000000000000000100 c
1d
#340000000
0!
0/
0J
0]
#345000000
1!
1/
0E
1J
1]
0_
1g
#350000000
0!
0/
0J
0]
#355000000
1!
b1110110110000000110011000000000101000000100001111101111010001100 ,
1/
b1110110110000000110011000000000101000000100001111101111010001100 :
b1000110011011110100001110100000000000001110011001000000011101101 =
1J
1]
b1000110011011110100001110100000000000001110011001000000011101101 c
b1 f
#360000000
0!
0/
0J
0]
#365000000
1!
b0111111111111000110110110110000110011110111011111111001001000000 ,
1/
b0111111111111000110110110110000110011110111011111111001001000000 :
b0100000011110010111011111001111001100001110110111111100001111111 =
1J
1]
b0100000011110010111011111001111001100001110110111111100001111111 c
b10 f
#370000000
0!
0/
0J
0]
#375000000
1!
b0000000110100110110000101010101100011010100011011101010101011011 ,
1/
b0000000110100110110000101010101100011010100011011101010101011011 :
b0101101111010101100011010001101010101011110000101010011000000001 =
1J
1]
b0101101111010101100011010001101010101011110000101010011000000001 c
b11 f
#380000000
0!
0/
0J
0]
#385000000
1!
b1110010010001001011011111011110011010111011000011100011101110111 ,
1/
b1110010010001001011011111011110011010111011000011100011101110111 :
b0111011111000111011000011101011110111100011011111000100111100100 =
1J
1]
b0111011111000111011000011101011110111100011011111000100111100100 c
b100 f
#390000000
0!
0/
0J
0]
#395000000
1!
b1010110100101011101010110001000010111110001011010111000011001101 ,
1/
b1010110100101011101010110001000010111110001011010111000011001101 :
b1100110101110000001011011011111000010000101010110010101110101101 =
1J
1]
b1100110101110000001011011011111000010000101010110010101110101101 c
b101 f
#400000000
0!
0/
0J
0]
#405000000
1!
b0111011110110010110000110111110010011010110110111100110010100101 ,
1/
b0111011110110010110000110111110010011010110110111100110010100101 :
b1010010111001100110110111001101001111100110000111011001001110111 =
1J
1]
b1010010111001100110110111001101001111100110000111011001001110111 c
b110 f
#410000000
0!
0/
0J
0]
#415000000
1!
b1000111111000001000010001110010010011011111111001001011000001000 ,
1/
b1000111111000001000010001110010010011011111111001001011000001000 :
b0000100010010110111111001001101111100100000010001100000110001111 =
1J
1]
b0000100010010110111111001001101111100100000010001100000110001111 c
b111 f
#420000000
0!
0/
0J
0]
#425000000
1!
b1001001000000010001100100110101000100100000010001001101100110000 ,
1/
b1001001000000010001100100110101000100100000010001001101100110000 :
b0011000010011011000010000010010001101010001100100000001010010010 =
1J
1]
b0011000010011011000010000010010001101010001100100000001010010010 c
b1000 f
#430000000
0!
0/
0J
0]
#435000000
1!
b0100000100001100001110100000000011101011111111111000011001101001 ,
1/
b0100000100001100001110100000000011101011111111111000011001101001 :
b0110100110000110111111111110101100000000001110100000110001000001 =
1J
1]
b0110100110000110111111111110101100000000001110100000110001000001 c
b1001 f
#440000000
0!
0/
0J
0]
#445000000
1!
b0001101011011100011010101110111000011000100000111110100111011011 ,
1/
b0001101011011100011010101110111000011000100000111110100111011011 :
b1101101111101001100000110001100011101110011010101101110000011010 =
1J
1]
b1101101111101001100000110001100011101110011010101101110000011010 c
b1010 f
#450000000
0!
0/
0J
0]
#455000000
1!
b0111011010110111001101010101100000100101010001101010100011001000 ,
1/
b0111011010110111001101010101100000100101010001101010100011001000 :
b1100100010101000010001100010010101011000001101011011011101110110 =
1J
1]
b1100100010101000010001100010010101011000001101011011011101110110 c
b1011 f
#460000000
0!
0/
0J
0]
#465000000
1!
b0000001111011110111010001010000011000010001001110101010101100111 ,
1/
b0000001111011110111010001010000011000010001001110101010101100111 :
b0110011101010101001001111100001010100000111010001101111000000011 =
0?
1@
1J
0Z
1]
b0110011101010101001001111100001010100000111010001101111000000011 c
0d
1e
b0 f
0g
#470000000
0!
0/
0J
0]
#475000000
1!
1-
1/
1;
0@
1G
1J
1N
1]
0e
#480000000
0!
0/
0J
0]
#485000000
1!
1/
1J
1]
#490000000
0!
0/
0J
0]
#495000000
1!
0-
1/
0;
1>
1?
1D
1J
1V
1W
1Z
1]
1_
1`
1d
#500000000
0!
0/
0J
0]
#505000000
1!
1/
0>
0D
1J
0V
0W
1]
0_
0`
1g
#510000000
0!
0/
0J
0]
#515000000
1!
b1101100101111010101110101001100001111000100100111011000010110110 ,
1/
b1101100101111010101110101001100001111000100100111011000010110110 :
b1011011010110000100100110111100010011000101110100111101011011001 =
1J
1]
b1011011010110000100100110111100010011000101110100111101011011001 c
b1 f
#520000000
0!
0/
0J
0]
#525000000
1!
b1010100000100000010101011010010101010101000110011011010100100100 ,
1/
b1010100000100000010101011010010101010101000110011011010100100100 :
b0010010010110101000110010101010110100101010101010010000010101000 =
1J
1]
b0010010010110101000110010101010110100101010101010010000010101000 c
b10 f
#530000000
0!
0/
0J
0]
#535000000
1!
b0000000100011010110111110111110111110010101001101001100101001110 ,
1/
b0000000100011010110111110111110111110010101001101001100101001110 :
b0100111010011001101001101111001001111101110111110001101000000001 =
1J
1]
b0100111010011001101001101111001001111101110111110001101000000001 c
b11 f
#540000000
0!
0/
0J
0]
#545000000
1!
b0000101000110101110001001010000010100001100010011001111010000001 ,
1/
b0000101000110101110001001010000010100001100010011001111010000001 :
b1000000110011110100010011010000110100000110001000011010100001010 =
1J
1]
b1000000110011110100010011010000110100000110001000011010100001010 c
b100 f
#550000000
0!
0/
0J
0]
#555000000
1!
b0001000010100010101110000111101101110100110110001100111100111111 ,
1/
b0001000010100010101110000111101101110100110110001100111100111111 :
b0011111111001111110110000111010001111011101110001010001000010000 =
1J
1]
b0011111111001111110110000111010001111011101110001010001000010000 c
b101 f
#560000000
0!
0/
0J
0]
#565000000
1!
b1110001101101010011101010000110101110010110011100101100100010111 ,
1/
b1110001101101010011101010000110101110010110011100101100100010111 :
b0001011101011001110011100111001000001101011101010110101011100011 =
1J
1]
b0001011101011001110011100111001000001101011101010110101011100011 c
b110 f
#570000000
0!
0/
0J
0]
#575000000
1!
b1111110011000110000001111000000011101010110000101111111111011111 ,
1/
b1111110011000110000001111000000011101010110000101111111111011111 :
b1101111111111111110000101110101010000000000001111100011011111100 =
1J
1]
b1101111111111111110000101110101010000000000001111100011011111100 c
b111 f
#580000000
0!
0/
0J
0]
#585000000
1!
b0100001101101110010111011011100000100100001011110110111100110111 ,
1/
b0100001101101110010111011011100000100100001011110110111100110111 :
b0011011101101111001011110010010010111000010111010110111001000011 =
1J
1]
b0011011101101111001011110010010010111000010111010110111001000011 c
b1000 f
#590000000
0!
0/
0J
0]
#595000000
1!
b1000011001101010011100001010111010000011001011100101011111100110 ,
1/
b1000011001101010011100001010111010000011001011100101011111100110 :
b1110011001010111001011101000001110101110011100000110101010000110 =
1J
1]
b1110011001010111001011101000001110101110011100000110101010000110 c
b1001 f
#600000000
0!
0/
0J
0]
#605000000
1!
b0110100010111111110110110101000101011000101001110101000000001000 ,
1/
b0110100010111111110110110101000101011000101001110101000000001000 :
b0000100001010000101001110101100001010001110110111011111101101000 =
1J
1]
b0000100001010000101001110101100001010001110110111011111101101000 c
b1010 f
#610000000
0!
0/
0J
0]
#615000000
1!
b0111001110100011101111011110011001010111010100010101001000100110 ,
1/
b0111001110100011101111011110011001010111010100010101001000100110 :
b0010011001010010010100010101011111100110101111011010001101110011 =
1J
1]
b0010011001010010010100010101011111100110101111011010001101110011 c
b1011 f
#620000000
0!
0/
0J
0]
#625000000
1!
b0011101001001001101000001010111010010011001010010111110001111010 ,
1-
1/
b0011101001001001101000001010111010010011001010010111110001111010 :
1;
b0111101001111100001010011001001110101110101000000100100100111010 =
0?
1@
1J
0Z
1]
b0111101001111100001010011001001110101110101000000100100100111010 c
0d
1e
b0 f
0g
#630000000
0!
0/
0J
0]
#635000000
1!
1/
0@
1J
1]
0e
#640000000
0!
0/
0J
0]
#645000000
1!
1+
1/
19
1B
1J
1T
1]
#650000000
0!
0/
0J
0]
#655000000
1!
0#
1)
1*
1/
03
17
18
0G
1J
0N
1R
1S
1T
1]
#660000000
0!
0/
0J
0]
#665000000
1!
0)
0*
1/
07
08
1>
0F
1J
0R
0S
1T
1V
b0000000000000000000000000000000000000000000000000000000000000001 \
1]
1`
#670000000
0!
0/
0J
0]
#675000000
1!
0+
0-
1/
09
0;
b0000000000000000000000000000000000000000000000000000000000000001 <
1?
0B
1D
1J
0T
b0000000000000000000000000000000000000000000000000000000000000001 U
1V
1W
1Z
1]
1_
b0000000000000000000000000000000000000000000000000000000000000001 b
1d
#680000000
0!
0/
0J
0]
#685000000
1!
b0011101101001001101000001010111010010011001010010111110001111010 ,
1/
b0011101101001001101000001010111010010011001010010111110001111010 :
b0111101001111100001010011001001110101110101000000100100100111011 =
0>
0D
1J
0V
0W
1]
0_
0`
b0111101001111100001010011001001110101110101000000100100100111011 c
1g
#690000000
0!
0/
0J
0]
#695000000
1!
b1110101001000110011101100010111011110010010111010010010010110100 ,
1/
b1110101001000110011101100010111011110010010111010010010010110100 :
b1011010000100100010111011111001000101110011101100100011011101010 =
1J
1]
b1011010000100100010111011111001000101110011101100100011011101010 c
b1 f
#700000000
0!
0/
0J
0]
#705000000
1!
b1011100001100111100110010001111011001100110000011001110101100001 ,
1/
b1011100001100111100110010001111011001100110000011001110101100001 :
b0110000110011101110000011100110000011110100110010110011110111000 =
1J
1]
b0110000110011101110000011100110000011110100110010110011110111000 c
b10 f
#710000000
0!
0/
0J
0]
#715000000
1!
b0100100111011011001011101001010000110100001101110101010001100011 ,
1/
b0100100111011011001011101001010000110100001101110101010001100011 :
b0110001101010100001101110011010010010100001011101101101101001001 =
1J
1]
b0110001101010100001101110011010010010100001011101101101101001001 c
b11 f
#720000000
0!
0/
0J
0]
#725000000
1!
b0101001011001101101000000001000101001000000111111110110001111111 ,
1/
b0101001011001101101000000001000101001000000111111110110001111111 :
b0111111111101100000111110100100000010001101000001100110101010010 =
1J
1]
b0111111111101100000111110100100000010001101000001100110101010010 c
b100 f
#730000000
0!
0/
0J
0]
#735000000
1!
b0101110000100001100000010100001010110100110110101101011111100101 ,
1/
b0101110000100001100000010100001010110100110110101101011111100101 :
b1110010111010111110110101011010001000010100000010010000101011100 =
1J
1]
b1110010111010111110110101011010001000010100000010010000101011100 c
b101 f
#740000000
0!
0/
0J
0]
#745000000
1!
b1011001011001010110100110010111100110000010100110100011110001000 ,
1/
b1011001011001010110100110010111100110000010100110100011110001000 :
b1000100001000111010100110011000000101111110100111100101010110010 =
1J
1]
b1000100001000111010100110011000000101111110100111100101010110010 c
b110 f
#750000000
0!
0/
0J
0]
#755000000
1!
b1000110110100001111101111111000010000000100100000100110010111010 ,
1/
b1000110110100001111101111111000010000000100100000100110010111010 :
b1011101001001100100100001000000011110000111101111010000110001101 =
1J
1]
b1011101001001100100100001000000011110000111101111010000110001101 c
b111 f
#760000000
0!
0/
0J
0]
#765000000
1!
b0101111001100100101110100011101111001111011101110110110111101111 ,
1/
b0101111001100100101110100011101111001111011101110110110111101111 :
b1110111101101101011101111100111100111011101110100110010001011110 =
1J
1]
b1110111101101101011101111100111100111011101110100110010001011110 c
b1000 f
#770000000
0!
0/
0J
0]
#775000000
1!
b1011001101001010011001101110111101111010011100101001001001000001 ,
1/
b1011001101001010011001101110111101111010011100101001001001000001 :
b0100000110010010011100100111101011101111011001100100101010110011 =
1J
1]
b0100000110010010011100100111101011101111011001100100101010110011 c
b1001 f
#780000000
0!
0/
0J
0]
#785000000
1!
b1110110000101001000111111110010010000001101111101111011000111011 ,
1/
b1110110000101001000111111110010010000001101111101111011000111011 :
b0011101111110110101111101000000111100100000111110010100111101100 =
1J
1]
b0011101111110110101111101000000111100100000111110010100111101100 c
b1010 f
#790000000
0!
0/
0J
0]
#795000000
1!
b0111011011000110011011110000011111100110100101101111110011010001 ,
1/
b0111011011000110011011110000011111100110100101101111110011010001 :
b1101000111111100100101101110011000000111011011111100011001110110 =
1J
1]
b1101000111111100100101101110011000000111011011111100011001110110 c
b1011 f
#800000000
0!
0/
0J
0]
#805000000
1!
b1110100011001001111000111001010011001000110011000000110001010000 ,
1-
1/
b1110100011001001111000111001010011001000110011000000110001010000 :
1;
b0101000000001100110011001100100010010100111000111100100111101000 =
0?
1@
1J
0Z
1]
b0101000000001100110011001100100010010100111000111100100111101000 c
0d
1e
b0 f
0g
#810000000
0!
0/
0J
0]
#815000000
1!
1/
0@
1J
1]
0e
#820000000
0!
0/
0J
0]
#825000000
1!
1/
1J
1]
#830000000
0!
0/
0J
0]
#835000000
1!
1/
1J
1]
#840000000
0!
0/
0J
0]
#845000000
1!
1/
1J
1]
#850000000
0!
0/
0J
0]
#855000000
1!
1/
1J
1]
#860000000
0!
0/
0J
0]
#865000000
1!
1/
1J
1]
#870000000
0!
0/
0J
0]
#875000000
1!
1$
1/
14
1J
1O
1]
#880000000
0!
0/
0J
0]
#885000000
1!
1/
1J
1]
#890000000
0!
0/
0J
0]
#895000000
1!
1+
1/
19
1B
1J
1T
1]
#900000000
0!
0/
0J
0]
#905000000
1!
0$
1/
04
1J
0O
1T
1]
#910000000
0!
0/
0J
0]
#915000000
1!
1)
1*
1/
17
18
1J
1R
1S
1T
1]
#920000000
0!
0/
0J
0]
#925000000
1!
0)
0*
1/
07
08
b0000000000000000000000000000000000000000000000000000000000000000 <
1>
1J
0R
0S
1T
b0000000000000000000000000000000000000000000000000000000000000000 U
1V
1]
1`
b0000000000000000000000000000000000000000000000000000000000000000 b
#930000000
0!
0/
0J
0]
#935000000
1!
0+
0-
1/
09
0;
b0000000000000000000000000000000000000000000000000000000000000001 <
1?
0B
1D
1J
0T
b0000000000000000000000000000000000000000000000000000000000000001 U
1V
1W
1Z
1]
1_
b0000000000000000000000000000000000000000000000000000000000000001 b
1d
#940000000
0!
0/
0J
0]
#945000000
1!
b1110100111001001111000111001010011001000110011000000110001010000 ,
1/
b1110100111001001111000111001010011001000110011000000110001010000 :
b0101000000001100110011001100100010010100111000111100100111101001 =
0>
0D
1J
0V
0W
1]
0_
0`
b0101000000001100110011001100100010010100111000111100100111101001 c
1g
#950000000
0!
0/
0J
0]
#955000000
1!
b0000010010110001110110011001011000000101000011110011110000110000 ,
1/
b0000010010110001110110011001011000000101000011110011110000110000 :
b0011000000111100000011110000010110010110110110011011000100000100 =
1J
1]
b0011000000111100000011110000010110010110110110011011000100000100 c
b1 f
#960000000
0!
0/
0J
0]
#965000000
1!
b0101001100010010010001001001111100110110111101001000010010001100 ,
1/
b0101001100010010010001001001111100110110111101001000010010001100 :
b1000110010000100111101000011011010011111010001000001001001010011 =
1J
1]
b1000110010000100111101000011011010011111010001000001001001010011 c
b10 f
#970000000
0!
0/
0J
0]
#975000000
1!
b1111000000110010010100000010011110110010100101010000100100100111 ,
1/
b1111000000110010010100000010011110110010100101010000100100100111 :
b0010011100001001100101011011001000100111010100000011001011110000 =
1J
1]
b0010011100001001100101011011001000100111010100000011001011110000 c
b11 f
#980000000
0!
0/
0J
0]
#985000000
1!
b1111011000111100111001111000111101010001111100110001101001001001 ,
1/
b1111011000111100111001111000111101010001111100110001101001001001 :
b0100100100011010111100110101000110001111111001110011110011110110 =
1J
1]
b0100100100011010111100110101000110001111111001110011110011110110 c
b100 f
#990000000
0!
0/
0J
0]
#995000000
1!
b0111100110001001011101110110000010110101011111110100000100011010 ,
1/
b0111100110001001011101110110000010110101011111110100000100011010 :
b0001101001000001011111111011010101100000011101111000100101111001 =
1J
1]
b0001101001000001011111111011010101100000011101111000100101111001 c
b101 f
#1000000000
0!
0/
0J
0]
#1005000000
1!
b0010100011011101101011110011111100010001011000111010000010000010 ,
1/
b0010100011011101101011110011111100010001011000111010000010000010 :
b1000001010100000011000110001000100111111101011111101110100101000 =
1J
1]
b1000001010100000011000110001000100111111101011111101110100101000 c
b110 f
#1010000000
0!
0/
0J
0]
#1015000000
1!
b0100110110111011001011010001011111000100011100011110011111000100 ,
1/
b0100110110111011001011010001011111000100011100011110011111000100 :
b1100010011100111011100011100010000010111001011011011101101001101 =
1J
1]
b1100010011100111011100011100010000010111001011011011101101001101 c
b111 f
#1020000000
0!
0/
0J
0]
#1025000000
1!
b1110100011111110100001111110100000010011011001011111111100100100 ,
1/
b1110100011111110100001111110100000010011011001011111111100100100 :
b0010010011111111011001010001001111101000100001111111111011101000 =
1J
1]
b0010010011111111011001010001001111101000100001111111111011101000 c
b1000 f
#1030000000
0!
0/
0J
0]
#1035000000
1!
b0101111111001001001001100001011010011010000011000101111101111111 ,
1/
b0101111111001001001001100001011010011010000011000101111101111111 :
b0111111101011111000011001001101000010110001001101100100101011111 =
1J
1]
b0111111101011111000011001001101000010110001001101100100101011111 c
b1001 f
#1040000000
0!
0/
0J
0]
#1045000000
1!
b0111001001100001111001011000101111010101111111001101111010111000 ,
1/
b0111001001100001111001011000101111010101111111001101111010111000 :
b1011100011011110111111001101010110001011111001010110000101110010 =
1J
1]
b1011100011011110111111001101010110001011111001010110000101110010 c
b1010 f
#1050000000
0!
0/
0J
0]
#1055000000
1!
b0100001001111001111111001000111010100010110010111101111001111010 ,
1/
b0100001001111001111111001000111010100010110010111101111001111010 :
b0111101011011110110010111010001010001110111111000111100101000010 =
1J
1]
b0111101011011110110010111010001010001110111111000111100101000010 c
b1011 f
#1060000000
0!
0/
0J
0]
#1065000000
1!
b0100111101010000000101011001111011110111000010111011001111011010 ,
1-
1/
b0100111101010000000101011001111011110111000010111011001111011010 :
1;
b1101101010110011000010111111011110011110000101010101000001001111 =
0?
1@
1J
0Z
1]
b1101101010110011000010111111011110011110000101010101000001001111 c
0d
1e
b0 f
0g
#1070000000
0!
0/
0J
0]
#1075000000
1!
1/
0@
1J
b00000000000000000000000100000000 [
1]
0e
#1080000000
0!
0/
0J
0]
#1085000000
1!
1/
1C
1J
1X
1]
#1090000000
0!
0/
0J
0]
#1095000000
1!
0-
1/
0;
1?
0C
1D
1J
1W
0X
1Z
b00000000000000000000000011000000 [
1]
1_
1d
#1100000000
0!
0/
0J
0]
#1105000000
1!
1/
1C
0D
1J
0W
1X
1]
0_
1g
#1110000000
0!
0/
0J
0]
#1115000000
1!
b1011110010110111011101111001010110111110001111010111010001111001 ,
1/
b1011110010110111011101111001010110111110001111010111010001111001 :
b0111100101110100001111011011111010010101011101111011011110111100 =
0C
1J
0X
1]
b0111100101110100001111011011111010010101011101111011011110111100 c
b1 f
#1120000000
0!
0/
0J
0]
#1125000000
1!
b0010100101001110011100100110101110000101100101001101001001001001 ,
1/
b0010100101001110011100100110101110000101100101001101001001001001 :
b0100100111010010100101001000010101101011011100100100111000101001 =
1J
1]
b0100100111010010100101001000010101101011011100100100111000101001 c
b10 f
#1130000000
0!
0/
0J
0]
#1135000000
1!
b0100110001011000101100111011010010001011100001000110110001001101 ,
1/
b0100110001011000101100111011010010001011100001000110110001001101 :
b0100110101101100100001001000101110110100101100110101100001001100 =
1J
1]
b0100110101101100100001001000101110110100101100110101100001001100 c
b11 f
#1140000000
0!
0/
0J
0]
#1145000000
1!
b0110001110000000110110010001011111111000110111011101110100100011 ,
1/
b0110001110000000110110010001011111111000110111011101110100100011 :
b0010001111011101110111011111100000010111110110011000000001100011 =
1J
1]
b0010001111011101110111011111100000010111110110011000000001100011 c
b100 f
#1150000000
0!
0/
0J
0]
