hardware/top_wave.vcd
$date
  Tue Dec  9 10:09:56 2025
$end
$version
  GHDL v0
$end
$timescale
  1 fs
$end
$scope module standard $end
$upscope $end
$scope module textio $end
$upscope $end
$scope module std_logic_1164 $end
$upscope $end
$scope module numeric_std $end
$upscope $end
$scope module tb_top_wave $end
$var reg 1 ! clk $end
$var reg 1 " rst $end
$var reg 1 # start_z $end
$var reg 1 $ start_m $end
$var reg 64 % z_bit_len[63:0] $end
$var reg 32 & out_len_bits[31:0] $end
$var reg 64 ' data_in[63:0] $end
$var reg 3 ( valid_bytes[2:0] $end
$var reg 1 ) last_word $end
$var reg 1 * data_valid $end
$var reg 1 + buffer_ready $end
$var reg 64 , hash_out[63:0] $end
$var reg 1 - hash_valid $end
$var reg 1 . m_data_sent $end
$var integer 32 / block_count $end
$var reg 64 0 hash_block_0[63:0] $end
$var reg 64 1 hash_block_1[63:0] $end
$scope module dut $end
$var reg 1 2 clk $end
$var reg 1 3 rst $end
$var reg 64 4 z_bit_len[63:0] $end
$var reg 32 5 out_len_bits[31:0] $end
$var reg 1 6 start_z $end
$var reg 1 7 start_m $end
$var reg 64 8 data_in[63:0] $end
$var reg 3 9 valid_bytes[2:0] $end
$var reg 1 : last_word $end
$var reg 1 ; data_valid $end
$var reg 1 < buffer_ready $end
$var reg 64 = hash_out[63:0] $end
$var reg 1 > hash_valid $end
$comment main_state is not handled $end
$var reg 64 ? w_block_data[63:0] $end
$var reg 64 @ w_core_out[63:0] $end
$var reg 1 A w_block_valid $end
$var reg 1 B w_core_busy $end
$var reg 1 C w_perm_done $end
$var reg 1 D ctrl_init_state $end
$var reg 1 E buf_ready_raw $end
$var reg 1 F w_cmd_squeeze $end
$var reg 1 G w_cmd_perm $end
$var reg 1 H iv_start_perm $end
$scope module u_buffer $end
$var reg 1 I clk $end
$var reg 1 J rst $end
$var reg 64 K z_bit_len[63:0] $end
$var reg 32 L out_len_bits[31:0] $end
$var reg 1 M start_z $end
$var reg 1 N start_m $end
$var reg 64 O data_in[63:0] $end
$var reg 3 P valid_bytes[2:0] $end
$var reg 1 Q last_word $end
$var reg 1 R data_valid $end
$var reg 1 S buffer_ready $end
$var reg 64 T block_out[63:0] $end
$var reg 1 U block_valid $end
$var reg 1 V cmd_perm $end
$var reg 1 W cmd_squeeze $end
$var reg 1 X domain_sep $end
$var reg 1 Y core_busy $end
$comment current_state is not handled $end
$var reg 32 Z squeeze_count[31:0] $end
$var reg 64 [ pad_buffer[63:0] $end
$upscope $end
$scope module u_core $end
$var reg 1 \ clk $end
$var reg 1 ] rst $end
$var reg 1 ^ start_perm $end
$var reg 1 _ absorb_en $end
$var reg 1 ` init_state $end
$var reg 64 a block_in[63:0] $end
$var reg 64 b block_out[63:0] $end
$var reg 1 c core_busy $end
$var reg 1 d perm_done $end
$comment s is not handled $end
$comment s_next is not handled $end
$var integer 32 e round_ctr $end
$var reg 1 f round_active $end
$upscope $end
$upscope $end
$upscope $end
$enddefinitions $end
#0
0!
1"
0#
0$
b0000000000000000000000000000000000000000000000000000000000000000 %
b00000000000000000000001000000000 &
b0000000000000000000000000000000000000000000000000000000000000000 '
b000 (
0)
0*
0+
bUUUUUUUUUUUUUUUUUUUUUUUUUUUUUUUUUUUUUUUUUUUUUUUUUUUUUUUUUUUUUUUU ,
0-
0.
b0 /
b0000000000000000000000000000000000000000000000000000000000000000 0
b0000000000000000000000000000000000000000000000000000000000000000 1
02
13
b0000000000000000000000000000000000000000000000000000000000000000 4
b00000000000000000000001000000000 5
06
07
b0000000000000000000000000000000000000000000000000000000000000000 8
b000 9
0:
0;
0<
bUUUUUUUUUUUUUUUUUUUUUUUUUUUUUUUUUUUUUUUUUUUUUUUUUUUUUUUUUUUUUUUU =
0>
bUUUUUUUUUUUUUUUUUUUUUUUUUUUUUUUUUUUUUUUUUUUUUUUUUUUUUUUUUUUUUUUU ?
bUUUUUUUUUUUUUUUUUUUUUUUUUUUUUUUUUUUUUUUUUUUUUUUUUUUUUUUUUUUUUUUU @
UA
UB
UC
UD
UE
UF
UG
0H
0I
1J
b0000000000000000000000000000000000000000000000000000000000000000 K
b00000000000000000000001000000000 L
0M
0N
b0000000000000000000000000000000000000000000000000000000000000000 O
b000 P
0Q
0R
US
bUUUUUUUUUUUUUUUUUUUUUUUUUUUUUUUUUUUUUUUUUUUUUUUUUUUUUUUUUUUUUUUU T
UU
UV
UW
UX
UY
bUUUUUUUUUUUUUUUUUUUUUUUUUUUUUUUU Z
bUUUUUUUUUUUUUUUUUUUUUUUUUUUUUUUUUUUUUUUUUUUUUUUUUUUUUUUUUUUUUUUU [
0\
1]
U^
U_
U`
bUUUUUUUUUUUUUUUUUUUUUUUUUUUUUUUUUUUUUUUUUUUUUUUUUUUUUUUUUUUUUUUU a
bUUUUUUUUUUUUUUUUUUUUUUUUUUUUUUUUUUUUUUUUUUUUUUUUUUUUUUUUUUUUUUUU b
Uc
Ud
b0 e
0f
#5000000
1!
b0000010000000000110011000000000000000000000010000000000000000000 ,
12
b0000010000000000110011000000000000000000000010000000000000000000 =
b0000000000000000000000000000000000000000000000000000000000000000 ?
b0000000000000000000010000000000000000000110011000000000000000100 @
0A
0B
0C
0D
0E
0F
0G
1I
0S
b0000000000000000000000000000000000000000000000000000000000000000 T
0U
0V
0W
0X
0Y
1\
0^
0_
0`
b0000000000000000000000000000000000000000000000000000000000000000 a
b0000000000000000000010000000000000000000110011000000000000000100 b
0c
0d
#10000000
0!
02
0I
0\
#15000000
1!
12
1I
1\
#20000000
0!
02
0I
0\
#25000000
1!
12
1I
1\
#30000000
0!
02
0I
0\
#35000000
1!
12
1I
1\
#40000000
0!
02
0I
0\
#45000000
1!
12
1I
1\
#50000000
0!
0"
02
03
0I
0J
0\
0]
#55000000
1!
12
1D
1I
1\
1`
#60000000
0!
02
0I
0\
#65000000
1!
12
1B
0D
1H
1I
1Y
1\
1^
0`
1c
#70000000
0!
02
0I
0\
#75000000
1!
12
0H
1I
1\
0^
1f
#80000000
0!
02
0I
0\
#85000000
1!
b1110110110000000110011000000000101000000100001111101111010001100 ,
12
b1110110110000000110011000000000101000000100001111101111010001100 =
b1000110011011110100001110100000000000001110011001000000011101101 @
1I
1\
b1000110011011110100001110100000000000001110011001000000011101101 b
b1 e
#90000000
0!
02
0I
0\
#95000000
1!
b0111111111111000110110110110000110011110111011111111001001000000 ,
12
b0111111111111000110110110110000110011110111011111111001001000000 =
b0100000011110010111011111001111001100001110110111111100001111111 @
1I
1\
b0100000011110010111011111001111001100001110110111111100001111111 b
b10 e
#100000000
0!
02
0I
0\
#105000000
1!
b0000000110100110110000101010101100011010100011011101010101011011 ,
12
b0000000110100110110000101010101100011010100011011101010101011011 =
b0101101111010101100011010001101010101011110000101010011000000001 @
1I
1\
b0101101111010101100011010001101010101011110000101010011000000001 b
b11 e
#110000000
0!
02
0I
0\
#115000000
1!
b1110010010001001011011111011110011010111011000011100011101110111 ,
12
b1110010010001001011011111011110011010111011000011100011101110111 =
b0111011111000111011000011101011110111100011011111000100111100100 @
1I
1\
b0111011111000111011000011101011110111100011011111000100111100100 b
b100 e
#120000000
0!
02
0I
0\
#125000000
1!
b1010110100101011101010110001000010111110001011010111000011001101 ,
12
b1010110100101011101010110001000010111110001011010111000011001101 =
b1100110101110000001011011011111000010000101010110010101110101101 @
1I
1\
b1100110101110000001011011011111000010000101010110010101110101101 b
b101 e
#130000000
0!
02
0I
0\
#135000000
1!
b0111011110110010110000110111110010011010110110111100110010100101 ,
12
b0111011110110010110000110111110010011010110110111100110010100101 =
b1010010111001100110110111001101001111100110000111011001001110111 @
1I
1\
b1010010111001100110110111001101001111100110000111011001001110111 b
b110 e
#140000000
0!
02
0I
0\
#145000000
1!
b1000111111000001000010001110010010011011111111001001011000001000 ,
12
b1000111111000001000010001110010010011011111111001001011000001000 =
b0000100010010110111111001001101111100100000010001100000110001111 @
1I
1\
b0000100010010110111111001001101111100100000010001100000110001111 b
b111 e
#150000000
0!
02
0I
0\
#155000000
1!
b1001001000000010001100100110101000100100000010001001101100110000 ,
12
b1001001000000010001100100110101000100100000010001001101100110000 =
b0011000010011011000010000010010001101010001100100000001010010010 @
1I
1\
b0011000010011011000010000010010001101010001100100000001010010010 b
b1000 e
#160000000
0!
02
0I
0\
#165000000
1!
b0100000100001100001110100000000011101011111111111000011001101001 ,
12
b0100000100001100001110100000000011101011111111111000011001101001 =
b0110100110000110111111111110101100000000001110100000110001000001 @
1I
1\
b0110100110000110111111111110101100000000001110100000110001000001 b
b1001 e
#170000000
0!
02
0I
0\
#175000000
1!
b0001101011011100011010101110111000011000100000111110100111011011 ,
12
b0001101011011100011010101110111000011000100000111110100111011011 =
b1101101111101001100000110001100011101110011010101101110000011010 @
1I
1\
b1101101111101001100000110001100011101110011010101101110000011010 b
b1010 e
#180000000
0!
02
0I
0\
#185000000
1!
b0111011010110111001101010101100000100101010001101010100011001000 ,
12
b0111011010110111001101010101100000100101010001101010100011001000 =
b1100100010101000010001100010010101011000001101011011011101110110 @
1I
1\
b1100100010101000010001100010010101011000001101011011011101110110 b
b1011 e
#190000000
0!
02
0I
0\
#195000000
1!
b0000001111011110111010001010000011000010001001110101010101100111 ,
12
b0000001111011110111010001010000011000010001001110101010101100111 =
b0110011101010101001001111100001010100000111010001101111000000011 @
0B
1C
1I
0Y
1\
b0110011101010101001001111100001010100000111010001101111000000011 b
0c
1d
b0 e
0f
#200000000
0!
02
0I
0\
#205000000
1!
1-
12
1>
0C
1I
1\
0d
#210000000
0!
02
0I
0\
#215000000
1!
12
1I
1\
#220000000
0!
02
0I
0\
#225000000
1!
12
1I
1\
#230000000
0!
02
0I
0\
#235000000
1!
12
1I
1\
#240000000
0!
02
0I
0\
#245000000
1!
12
1I
1\
#250000000
0!
02
0I
0\
#255000000
1!
1#
12
16
1I
1M
1\
#260000000
0!
02
0I
0\
#265000000
1!
0#
12
06
1I
0M
1\
#270000000
0!
02
0I
0\
#275000000
1!
0-
12
0>
1A
1B
1G
1I
1U
1V
1Y
1\
1^
1_
1c
#280000000
0!
02
0I
0\
#285000000
1!
12
0A
0G
1I
0U
0V
1\
0^
0_
1f
#290000000
0!
02
0I
0\
#295000000
1!
b1101100101111010101110101001100001111000100100111011000010110110 ,
12
b1101100101111010101110101001100001111000100100111011000010110110 =
b1011011010110000100100110111100010011000101110100111101011011001 @
1I
1\
b1011011010110000100100110111100010011000101110100111101011011001 b
b1 e
#300000000
0!
02
0I
0\
#305000000
1!
b1010100000100000010101011010010101010101000110011011010100100100 ,
12
b1010100000100000010101011010010101010101000110011011010100100100 =
b0010010010110101000110010101010110100101010101010010000010101000 @
1I
1\
b0010010010110101000110010101010110100101010101010010000010101000 b
b10 e
#310000000
0!
02
0I
0\
#315000000
1!
b0000000100011010110111110111110111110010101001101001100101001110 ,
12
b0000000100011010110111110111110111110010101001101001100101001110 =
b0100111010011001101001101111001001111101110111110001101000000001 @
1I
1\
b0100111010011001101001101111001001111101110111110001101000000001 b
b11 e
#320000000
0!
02
0I
0\
#325000000
1!
b0000101000110101110001001010000010100001100010011001111010000001 ,
12
b0000101000110101110001001010000010100001100010011001111010000001 =
b1000000110011110100010011010000110100000110001000011010100001010 @
1I
1\
b1000000110011110100010011010000110100000110001000011010100001010 b
b100 e
#330000000
0!
02
0I
0\
#335000000
1!
b0001000010100010101110000111101101110100110110001100111100111111 ,
12
b0001000010100010101110000111101101110100110110001100111100111111 =
b0011111111001111110110000111010001111011101110001010001000010000 @
1I
1\
b0011111111001111110110000111010001111011101110001010001000010000 b
b101 e
#340000000
0!
02
0I
0\
#345000000
1!
b1110001101101010011101010000110101110010110011100101100100010111 ,
12
b1110001101101010011101010000110101110010110011100101100100010111 =
b0001011101011001110011100111001000001101011101010110101011100011 @
1I
1\
b0001011101011001110011100111001000001101011101010110101011100011 b
b110 e
#350000000
0!
02
0I
0\
#355000000
1!
b1111110011000110000001111000000011101010110000101111111111011111 ,
12
b1111110011000110000001111000000011101010110000101111111111011111 =
b1101111111111111110000101110101010000000000001111100011011111100 @
1I
1\
b1101111111111111110000101110101010000000000001111100011011111100 b
b111 e
#360000000
0!
02
0I
0\
#365000000
1!
b0100001101101110010111011011100000100100001011110110111100110111 ,
12
b0100001101101110010111011011100000100100001011110110111100110111 =
b0011011101101111001011110010010010111000010111010110111001000011 @
1I
1\
b0011011101101111001011110010010010111000010111010110111001000011 b
b1000 e
#370000000
0!
02
0I
0\
#375000000
1!
b1000011001101010011100001010111010000011001011100101011111100110 ,
12
b1000011001101010011100001010111010000011001011100101011111100110 =
b1110011001010111001011101000001110101110011100000110101010000110 @
1I
1\
b1110011001010111001011101000001110101110011100000110101010000110 b
b1001 e
#380000000
0!
02
0I
0\
#385000000
1!
b0110100010111111110110110101000101011000101001110101000000001000 ,
12
b0110100010111111110110110101000101011000101001110101000000001000 =
b0000100001010000101001110101100001010001110110111011111101101000 @
1I
1\
b0000100001010000101001110101100001010001110110111011111101101000 b
b1010 e
#390000000
0!
02
0I
0\
#395000000
1!
b0111001110100011101111011110011001010111010100010101001000100110 ,
12
b0111001110100011101111011110011001010111010100010101001000100110 =
b0010011001010010010100010101011111100110101111011010001101110011 @
1I
1\
b0010011001010010010100010101011111100110101111011010001101110011 b
b1011 e
#400000000
0!
02
0I
0\
#405000000
1!
b0011101001001001101000001010111010010011001010010111110001111010 ,
1-
12
b0011101001001001101000001010111010010011001010010111110001111010 =
1>
b0111101001111100001010011001001110101110101000000100100100111010 @
0B
1C
1I
0Y
1\
b0111101001111100001010011001001110101110101000000100100100111010 b
0c
1d
b0 e
0f
#410000000
0!
02
0I
0\
#415000000
1!
12
0C
1I
1\
0d
#420000000
0!
02
0I
0\
#425000000
1!
1+
12
1<
1E
1I
1S
1\
#430000000
0!
02
0I
0\
#435000000
1!
1)
1*
12
1:
1;
1I
1Q
1R
1S
1\
#440000000
0!
02
0I
0\
#445000000
1!
12
1A
1I
1S
1U
b0000000000000000000000000000000000000000000000000000000000000001 [
1\
1_
#450000000
0!
02
0I
0\
#455000000
1!
0+
0-
12
0<
0>
b0000000000000000000000000000000000000000000000000000000000000001 ?
1B
0E
1G
1I
0S
b0000000000000000000000000000000000000000000000000000000000000001 T
1U
1V
1Y
1\
1^
b0000000000000000000000000000000000000000000000000000000000000001 a
1c
#460000000
0!
02
0I
0\
#465000000
1!
b0011101101001001101000001010111010010011001010010111110001111010 ,
12
b0011101101001001101000001010111010010011001010010111110001111010 =
b0111101001111100001010011001001110101110101000000100100100111011 @
0A
0G
1I
0U
0V
1\
0^
0_
b0111101001111100001010011001001110101110101000000100100100111011 b
1f
#470000000
0!
02
0I
0\
#475000000
1!
0)
0*
b1110101001000110011101100010111011110010010111010010010010110100 ,
12
0:
0;
b1110101001000110011101100010111011110010010111010010010010110100 =
b1011010000100100010111011111001000101110011101100100011011101010 @
1I
0Q
0R
1\
b1011010000100100010111011111001000101110011101100100011011101010 b
b1 e
#480000000
0!
02
0I
0\
#485000000
1!
b1011100001100111100110010001111011001100110000011001110101100001 ,
12
b1011100001100111100110010001111011001100110000011001110101100001 =
b0110000110011101110000011100110000011110100110010110011110111000 @
1I
1\
b0110000110011101110000011100110000011110100110010110011110111000 b
b10 e
#490000000
0!
02
0I
0\
#495000000
1!
b0100100111011011001011101001010000110100001101110101010001100011 ,
12
b0100100111011011001011101001010000110100001101110101010001100011 =
b0110001101010100001101110011010010010100001011101101101101001001 @
1I
1\
b0110001101010100001101110011010010010100001011101101101101001001 b
b11 e
#500000000
0!
02
0I
0\
#505000000
1!
b0101001011001101101000000001000101001000000111111110110001111111 ,
12
b0101001011001101101000000001000101001000000111111110110001111111 =
b0111111111101100000111110100100000010001101000001100110101010010 @
1I
1\
b0111111111101100000111110100100000010001101000001100110101010010 b
b100 e
#510000000
0!
02
0I
0\
#515000000
1!
b0101110000100001100000010100001010110100110110101101011111100101 ,
12
b0101110000100001100000010100001010110100110110101101011111100101 =
b1110010111010111110110101011010001000010100000010010000101011100 @
1I
1\
b1110010111010111110110101011010001000010100000010010000101011100 b
b101 e
#520000000
0!
02
0I
0\
#525000000
1!
b1011001011001010110100110010111100110000010100110100011110001000 ,
12
b1011001011001010110100110010111100110000010100110100011110001000 =
b1000100001000111010100110011000000101111110100111100101010110010 @
1I
1\
b1000100001000111010100110011000000101111110100111100101010110010 b
b110 e
#530000000
0!
02
0I
0\
#535000000
1!
b1000110110100001111101111111000010000000100100000100110010111010 ,
12
b1000110110100001111101111111000010000000100100000100110010111010 =
b1011101001001100100100001000000011110000111101111010000110001101 @
1I
1\
b1011101001001100100100001000000011110000111101111010000110001101 b
b111 e
#540000000
0!
02
0I
0\
#545000000
1!
b0101111001100100101110100011101111001111011101110110110111101111 ,
12
b0101111001100100101110100011101111001111011101110110110111101111 =
b1110111101101101011101111100111100111011101110100110010001011110 @
1I
1\
b1110111101101101011101111100111100111011101110100110010001011110 b
b1000 e
#550000000
0!
02
0I
0\
#555000000
1!
b1011001101001010011001101110111101111010011100101001001001000001 ,
12
b1011001101001010011001101110111101111010011100101001001001000001 =
b0100000110010010011100100111101011101111011001100100101010110011 @
1I
1\
b0100000110010010011100100111101011101111011001100100101010110011 b
b1001 e
#560000000
0!
02
0I
0\
#565000000
1!
b1110110000101001000111111110010010000001101111101111011000111011 ,
12
b1110110000101001000111111110010010000001101111101111011000111011 =
b0011101111110110101111101000000111100100000111110010100111101100 @
1I
1\
b0011101111110110101111101000000111100100000111110010100111101100 b
b1010 e
#570000000
0!
02
0I
0\
#575000000
1!
b0111011011000110011011110000011111100110100101101111110011010001 ,
12
b0111011011000110011011110000011111100110100101101111110011010001 =
b1101000111111100100101101110011000000111011011111100011001110110 @
1I
1\
b1101000111111100100101101110011000000111011011111100011001110110 b
b1011 e
#580000000
0!
02
0I
0\
#585000000
1!
b1110100011001001111000111001010011001000110011000000110001010000 ,
1-
12
b1110100011001001111000111001010011001000110011000000110001010000 =
1>
b0101000000001100110011001100100010010100111000111100100111101000 @
0B
1C
1I
0Y
1\
b0101000000001100110011001100100010010100111000111100100111101000 b
0c
1d
b0 e
0f
#590000000
0!
02
0I
0\
#595000000
1!
12
0C
1I
1\
0d
#600000000
0!
02
0I
0\
#605000000
1!
12
1I
1\
#610000000
0!
02
0I
0\
#615000000
1!
12
1I
1\
#620000000
0!
02
0I
0\
#625000000
1!
12
1I
1\
#630000000
0!
02
0I
0\
#635000000
1!
12
1I
1\
#640000000
0!
02
0I
0\
#645000000
1!
12
1I
1\
#650000000
0!
02
0I
0\
#655000000
1!
12
1I
1\
#660000000
0!
02
0I
0\
#665000000
1!
12
1I
1\
#670000000
0!
02
0I
0\
#675000000
1!
12
1I
1\
#680000000
0!
02
0I
0\
#685000000
1!
1$
12
17
1I
1N
1\
#690000000
0!
02
0I
0\
#695000000
1!
0$
12
07
1I
0N
1\
#700000000
0!
02
0I
0\
#705000000
1!
1+
12
1<
1E
1I
1S
1\
#710000000
0!
02
0I
0\
#715000000
1!
1)
1*
12
1:
1;
1I
1Q
1R
1S
1\
#720000000
0!
02
0I
0\
#725000000
1!
12
b0000000000000000000000000000000000000000000000000000000000000000 ?
1A
1I
1S
b0000000000000000000000000000000000000000000000000000000000000000 T
1U
1\
1_
b0000000000000000000000000000000000000000000000000000000000000000 a
#730000000
0!
02
0I
0\
#735000000
1!
0+
0-
12
0<
0>
b0000000000000000000000000000000000000000000000000000000000000001 ?
1B
0E
1G
1I
0S
b0000000000000000000000000000000000000000000000000000000000000001 T
1U
1V
1Y
1\
1^
b0000000000000000000000000000000000000000000000000000000000000001 a
1c
#740000000
0!
02
0I
0\
#745000000
1!
b1110100111001001111000111001010011001000110011000000110001010000 ,
12
b1110100111001001111000111001010011001000110011000000110001010000 =
b0101000000001100110011001100100010010100111000111100100111101001 @
0A
0G
1I
0U
0V
1\
0^
0_
b0101000000001100110011001100100010010100111000111100100111101001 b
1f
#750000000
0!
02
0I
0\
#755000000
1!
0)
0*
b0000010010110001110110011001011000000101000011110011110000110000 ,
1.
12
0:
0;
b0000010010110001110110011001011000000101000011110011110000110000 =
b0011000000111100000011110000010110010110110110011011000100000100 @
1I
0Q
0R
1\
b0011000000111100000011110000010110010110110110011011000100000100 b
b1 e
#760000000
0!
02
0I
0\
#765000000
1!
b0101001100010010010001001001111100110110111101001000010010001100 ,
12
b0101001100010010010001001001111100110110111101001000010010001100 =
b1000110010000100111101000011011010011111010001000001001001010011 @
1I
1\
b1000110010000100111101000011011010011111010001000001001001010011 b
b10 e
#770000000
0!
02
0I
0\
#775000000
1!
b1111000000110010010100000010011110110010100101010000100100100111 ,
12
b1111000000110010010100000010011110110010100101010000100100100111 =
b0010011100001001100101011011001000100111010100000011001011110000 @
1I
1\
b0010011100001001100101011011001000100111010100000011001011110000 b
b11 e
#780000000
0!
02
0I
0\
#785000000
1!
b1111011000111100111001111000111101010001111100110001101001001001 ,
12
b1111011000111100111001111000111101010001111100110001101001001001 =
b0100100100011010111100110101000110001111111001110011110011110110 @
1I
1\
b0100100100011010111100110101000110001111111001110011110011110110 b
b100 e
#790000000
0!
02
0I
0\
#795000000
1!
b0111100110001001011101110110000010110101011111110100000100011010 ,
12
b0111100110001001011101110110000010110101011111110100000100011010 =
b0001101001000001011111111011010101100000011101111000100101111001 @
1I
1\
b0001101001000001011111111011010101100000011101111000100101111001 b
b101 e
#800000000
0!
02
0I
0\
#805000000
1!
b0010100011011101101011110011111100010001011000111010000010000010 ,
12
b0010100011011101101011110011111100010001011000111010000010000010 =
b1000001010100000011000110001000100111111101011111101110100101000 @
1I
1\
b1000001010100000011000110001000100111111101011111101110100101000 b
b110 e
#810000000
0!
02
0I
0\
#815000000
1!
b0100110110111011001011010001011111000100011100011110011111000100 ,
12
b0100110110111011001011010001011111000100011100011110011111000100 =
b1100010011100111011100011100010000010111001011011011101101001101 @
1I
1\
b1100010011100111011100011100010000010111001011011011101101001101 b
b111 e
#820000000
0!
02
0I
0\
#825000000
1!
b1110100011111110100001111110100000010011011001011111111100100100 ,
12
b1110100011111110100001111110100000010011011001011111111100100100 =
b0010010011111111011001010001001111101000100001111111111011101000 @
1I
1\
b0010010011111111011001010001001111101000100001111111111011101000 b
b1000 e
#830000000
0!
02
0I
0\
#835000000
1!
b0101111111001001001001100001011010011010000011000101111101111111 ,
12
b0101111111001001001001100001011010011010000011000101111101111111 =
b0111111101011111000011001001101000010110001001101100100101011111 @
1I
1\
b0111111101011111000011001001101000010110001001101100100101011111 b
b1001 e
#840000000
0!
02
0I
0\
#845000000
1!
b0111001001100001111001011000101111010101111111001101111010111000 ,
12
b0111001001100001111001011000101111010101111111001101111010111000 =
b1011100011011110111111001101010110001011111001010110000101110010 @
1I
1\
b1011100011011110111111001101010110001011111001010110000101110010 b
b1010 e
#850000000
0!
02
0I
0\
#855000000
1!
b0100001001111001111111001000111010100010110010111101111001111010 ,
12
b0100001001111001111111001000111010100010110010111101111001111010 =
b0111101011011110110010111010001010001110111111000111100101000010 @
1I
1\
b0111101011011110110010111010001010001110111111000111100101000010 b
b1011 e
#860000000
0!
02
0I
0\
#865000000
1!
b0100111101010000000101011001111011110111000010111011001111011010 ,
1-
12
b0100111101010000000101011001111011110111000010111011001111011010 =
1>
b1101101010110011000010111111011110011110000101010101000001001111 @
0B
1C
1I
0Y
1\
b1101101010110011000010111111011110011110000101010101000001001111 b
0c
1d
b0 e
0f
#870000000
0!
02
0I
0\
#875000000
1!
b1 /
b0100111101010000000101011001111011110111000010111011001111011010 0
12
0C
1I
b00000000000000000000001000000000 Z
1\
0d
#880000000
0!
02
0I
0\
#885000000
1!
0-
b10 /
b0100111101010000000101011001111011110111000010111011001111011010 1
12
0>
1B
1F
1I
1W
1Y
1\
1^
1c
#890000000
0!
02
0I
0\
#895000000
1!
12
0F
1I
0W
1\
0^
1f
#900000000
0!
02
0I
0\
#905000000
1!
b1011110010110111011101111001010110111110001111010111010001111001 ,
12
b1011110010110111011101111001010110111110001111010111010001111001 =
b0111100101110100001111011011111010010101011101111011011110111100 @
1I
1\
b0111100101110100001111011011111010010101011101111011011110111100 b
b1 e
#910000000
0!
02
0I
0\
#915000000
1!
b0010100101001110011100100110101110000101100101001101001001001001 ,
12
b0010100101001110011100100110101110000101100101001101001001001001 =
b0100100111010010100101001000010101101011011100100100111000101001 @
1I
1\
b0100100111010010100101001000010101101011011100100100111000101001 b
b10 e
#920000000
0!
02
0I
0\
#925000000
1!
b0100110001011000101100111011010010001011100001000110110001001101 ,
12
b0100110001011000101100111011010010001011100001000110110001001101 =
b0100110101101100100001001000101110110100101100110101100001001100 @
1I
1\
b0100110101101100100001001000101110110100101100110101100001001100 b
b11 e
#930000000
0!
02
0I
0\
#935000000
1!
b0110001110000000110110010001011111111000110111011101110100100011 ,
12
b0110001110000000110110010001011111111000110111011101110100100011 =
b0010001111011101110111011111100000010111110110011000000001100011 @
1I
1\
b0010001111011101110111011111100000010111110110011000000001100011 b
b100 e
#940000000
0!
02
0I
0\
#945000000
1!
b0100110110110101000011000000011111100010101011101001011100010000 ,
12
b0100110110110101000011000000011111100010101011101001011100010000 =
b0001000010010111101011101110001000000111000011001011010101001101 @
1I
1\
b0001000010010111101011101110001000000111000011001011010101001101 b
b101 e
#950000000
0!
02
0I
0\
#955000000
1!
b1101001011001101111011100111101111011110100100110010101111111111 ,
12
b1101001011001101111011100111101111011110100100110010101111111111 =
b1111111100101011100100111101111001111011111011101100110111010010 @
1I
1\
b1111111100101011100100111101111001111011111011101100110111010010 b
b110 e
#960000000
0!
02
0I
0\
#965000000
1!
b1101100000011111110001000000101010000100010000001000010011110110 ,
12
b1101100000011111110001000000101010000100010000001000010011110110 =
b1111011010000100010000001000010000001010110001000001111111011000 @
1I
1\
b1111011010000100010000001000010000001010110001000001111111011000 b
b111 e
#970000000
0!
02
0I
0\
#975000000
1!
b0111010011100100110011010100101011001111011010101010110110110011 ,
12
b0111010011100100110011010100101011001111011010101010110110110011 =
b1011001110101101011010101100111101001010110011011110010001110100 @
1I
1\
b1011001110101101011010101100111101001010110011011110010001110100 b
b1000 e
#980000000
0!
02
0I
0\
#985000000
1!
b1000101110111010101001100011001101111101110111100111111110000000 ,
12
b1000101110111010101001100011001101111101110111100111111110000000 =
b1000000001111111110111100111110100110011101001101011101010001011 @
1I
1\
b1000000001111111110111100111110100110011101001101011101010001011 b
b1001 e
#990000000
0!
02
0I
0\
#995000000
1!
b1011001010111110111011011100101001000101110101100011010111101011 ,
12
b1011001010111110111011011100101001000101110101100011010111101011 =
b1110101100110101110101100100010111001010111011011011111010110010 @
1I
1\
b1110101100110101110101100100010111001010111011011011111010110010 b
b1010 e
#1000000000
0!
02
0I
0\
#1005000000
1!
b1000001101011000101010101010001100011110111011110101010101000111 ,
12
b1000001101011000101010101010001100011110111011110101010101000111 =
b0100011101010101111011110001111010100011101010100101100010000011 @
1I
1\
b0100011101010101111011110001111010100011101010100101100010000011 b
b1011 e
#1010000000
0!
02
0I
0\
#1015000000
1!
b1101100010000000011111100000001101001110101011101011110101000100 ,
1-
12
b1101100010000000011111100000001101001110101011101011110101000100 =
1>
b0100010010111101101011100100111000000011011111101000000011011000 @
0B
1C
1I
0Y
1\
b0100010010111101101011100100111000000011011111101000000011011000 b
0c
1d
b0 e
0f
#1020000000
0!
02
0I
0\
#1025000000
1!
0-
b11 /
12
0>
1B
0C
1G
1I
1V
1Y
b00000000000000000000000111000000 Z
1\
1^
1c
0d
#1030000000
0!
02
0I
0\
#1035000000
1!
12
1F
0G
1I
0V
1W
1\
1f
#1040000000
0!
02
0I
0\
#1045000000
1!
b1011110000111111000010010000000110100001011110001011001001101011 ,
12
b1011110000111111000010010000000110100001011110001011001001101011 =
b0110101110110010011110001010000100000001000010010011111110111100 @
0F
1I
0W
1\
0^
b0110101110110010011110001010000100000001000010010011111110111100 b
b1 e
#1050000000
0!
02
0I
0\
#1055000000
1!
b0101010111101010010000100100101010111101000001110001110110111111 ,
12
b0101010111101010010000100100101010111101000001110001110110111111 =
b1011111100011101000001111011110101001010010000101110101001010101 @
1I
1\
b1011111100011101000001111011110101001010010000101110101001010101 b
b10 e
#1060000000
0!
02
0I
0\
#1065000000
1!
b1110010011110000111101111101111100100010111100110000011100001111 ,
12
b1110010011110000111101111101111100100010111100110000011100001111 =
b0000111100000111111100110010001011011111111101111111000011100100 @
1I
1\
b0000111100000111111100110010001011011111111101111111000011100100 b
b11 e
#1070000000
0!
02
0I
0\
#1075000000
1!
b1000100010101011101111110101101101000011100111000001001010100111 ,
12
b1000100010101011101111110101101101000011100111000001001010100111 =
b1010011100010010100111000100001101011011101111111010101110001000 @
1I
1\
b1010011100010010100111000100001101011011101111111010101110001000 b
b100 e
#1080000000
0!
02
0I
0\
#1085000000
1!
b0011011111100001100011011010111111000100101011000001001010001111 ,
12
b0011011111100001100011011010111111000100101011000001001010001111 =
b1000111100010010101011001100010010101111100011011110000100110111 @
1I
1\
b1000111100010010101011001100010010101111100011011110000100110111 b
b101 e
#1090000000
0!
02
0I
0\
#1095000000
1!
b1111011001011000111101110010010000001010100101010111000111101101 ,
12
b1111011001011000111101110010010000001010100101010111000111101101 =
b1110110101110001100101010000101000100100111101110101100011110110 @
1I
1\
b1110110101110001100101010000101000100100111101110101100011110110 b
b110 e
#1100000000
0!
02
0I
0\
#1105000000
1!
b0000011001100001111100000011111110101010100101110011111011111011 ,
12
b0000011001100001111100000011111110101010100101110011111011111011 =
b1111101100111110100101111010101000111111111100000110000100000110 @
1I
1\
b1111101100111110100101111010101000111111111100000110000100000110 b
b111 e
#1110000000
0!
02
0I
0\
